[
  {
    "cls": "Comment",
    "parameters": {
      "comment": "---------- RH 90000 Oe ----------"
    }
  },
  {
    "cls": "ScanField",
    "parameters": {
      "approach": "oscillate",
      "interval": 30,
      "mode": "persistent",
      "rate": 100.0,
      "target": 0.0
    }
  },
  {
    "cls": "ScanField",
    "parameters": {
      "approach": "linear",
      "interval": 10,
      "mode": "persistent",
      "rate": 100.0,
      "target": 90000.0
    }
  },
  {
    "cls": "ScanField",
    "parameters": {
      "approach": "linear",
      "interval": 10,
      "mode": "persistent",
      "rate": 100.0,
      "target": -90000.0
    }
  },
  {
    "cls": "ScanField",
    "parameters": {
      "approach": "linear",
      "interval": 10,
      "mode": "persistent",
      "rate": 100.0,
      "target": 0.0
    }
  }
]